[Line# 0 - offset: 0]!!!!! Error., content: 0123
[Line# 1 - offset: 0]!!!!! Error., content: 01.23
[line# 2 - offset: 0] tkType: tInteger, value: 12
[line# 2 - offset: 2] tkType: tOperator, value: .
[line# 2 - offset: 3] tkType: tInteger, value: 340
[Line# 3 - offset: 0]!!!!! Error., content: 012.340
[line# 4 - offset: 0] tkType: tInteger, value: 12
[line# 4 - offset: 2] tkType: tOperator, value: .
[Line# 4 - offset: 3]!!!!! Error., content: 12.34e01
[line# 5 - offset: 0] tkType: tFloat, value: 12345.6789e-123
[line# 6 - offset: 0] tkType: tInteger, value: 12345
[line# 7 - offset: 0] tkType: tId, value: abc
[line# 8 - offset: 0] tkType: tId, value: abc1
[line# 9 - offset: 0] tkType: tId, value: abc_1
[line# 10 - offset: 0] tkType: tId, value: abc1_
[Line# 11 - offset: 0]!!!!! Error., content: _abc1
[Line# 12 - offset: 0]!!!!! Error., content: 1abc
[Line# 13 - offset: 0]!!!!! Error., content: _1abc
